 {
   "verified" : [
     {
       "text" : "Waymo is the Google self driving car company",
       "sources" : [
         {
           "source" : "bbc",
           "link" : "http://www.bbc.com/news/technology-39536347"
         },
         {
           "source" : "cnn",
           "link" : "http://money.cnn.com/2017/02/23/technology/waymo-uber-google-lawsuit/index.html"
         },
         {
           "source" : "nyt",
           "link" : "https://www.nytimes.com/2017/03/30/technology/tech-roundup-the-latest-in-the-google-uber-fracas.html"
         },
         {
           "source" : "fox",
           "link" : "http://www.foxnews.com/tech/2017/02/24/uber-stole-trade-secrets-waymo-alleges.html"
         },
         {
           "source" : "wpost",
           "link" : "https://www.washingtonpost.com/news/innovations/wp/2017/04/07/uber-strikes-back-against-waymos-lawsuit-over-alleged-stolen-trade-secrets/?utm_term=.a9069fbb7642"
         }
       ],
       "keywords" : [
         "waymo",
         "google"
       ]
     },
     {
       "text" : "Waymo is suing Uber for stealing their LIDAR Technology",
       "sources" : [
         {
           "source" : "bbc",
           "link" : "http://www.bbc.com/news/technology-39574210"
         },
         {
           "source" : "cnn",
           "link" : "http://money.cnn.com/2017/02/23/technology/waymo-uber-google-lawsuit/index.html"
         },
         {
           "source" : "nyt",
           "link" : "https://www.nytimes.com/2017/03/10/technology/waymo-uber-self-driving-car-lawsuit.html"
         },
         {
           "source" : "aljazeera",
           "link" : "http://www.aljazeera.com/video/news/2017/03/uber-suspends-driverless-cars-crash-170327052857301.html"
         },
         {
           "source" : "fox",
           "link" : "http://www.foxnews.com/tech/2017/04/07/google-lawsuit-against-uber-is-misfire-with-no-evidence-uber-lawyer-claims.html"
         },
         {
           "source" : "wpost",
           "link" : "https://www.washingtonpost.com/news/innovations/wp/2017/04/05/judge-tells-uber-to-investigate-accusations-that-employees-stole-secrets-from-waymo/"
         }
       ],
       "keywords" : [
         "waymo",
         "uber",
         "lidar"
       ]
     },
     {
       "text" : "Google claims Anthony Levandowski stole 14,000 documents",
       "sources" : [
         {
           "source" : "bbc",
           "link" : "http://www.bbc.com/news/technology-39574210"
         },
         {
           "source" : "nyt",
           "link" : "https://www.nytimes.com/2017/03/10/technology/waymo-uber-self-driving-car-lawsuit.html"
         },
         {
           "source" : "fox",
           "link" : "http://www.foxnews.com/tech/2017/04/07/google-lawsuit-against-uber-is-misfire-with-no-evidence-uber-lawyer-claims.html"
         },
         {
           "source" : "wpost",
           "link" : "https://www.washingtonpost.com/news/innovations/wp/2017/04/05/judge-tells-uber-to-investigate-accusations-that-employees-stole-secrets-from-waymo/"
         }
       ],
       "keywords" : [
         "google",
         "levandowski",
         "uber"
       ]
     },
     {
       "text" : "Anthony Levandowski went on to start Otto, a self driving truck company",
       "sources" : [
         {
           "source" : "bbc",
           "link" : "http://www.bbc.com/news/technology-39574210"
         },
         {
           "source" : "cnn",
           "link" : "http://money.cnn.com/2017/02/23/technology/waymo-uber-google-lawsuit/index.html"
         },
         {
           "source" : "nyt",
           "link" : "https://www.nytimes.com/2017/03/10/technology/waymo-uber-self-driving-car-lawsuit.html"
         },
         {
           "source" : "fox",
           "link" : "http://www.foxnews.com/tech/2017/04/07/google-lawsuit-against-uber-is-misfire-with-no-evidence-uber-lawyer-claims.html"
         }
       ],
       "keywords" : [
         "google",
         "levandowski",
         "otto",
         "uber"
       ]
     },
     {
       "text" : "Uber claims no Waymo files were found on their servers",
       "sources" : [
         {
           "source" : "bbc",
           "link" : "http://www.bbc.com/news/technology-39536347"
         },
         {
           "source" : "fox",
           "link" : "http://www.foxnews.com/tech/2017/04/07/google-lawsuit-against-uber-is-misfire-with-no-evidence-uber-lawyer-claims.html"
         },
         {
           "source" : "wpost",
           "link" : "https://www.washingtonpost.com/news/innovations/wp/2017/04/07/uber-strikes-back-against-waymos-lawsuit-over-alleged-stolen-trade-secrets/?utm_term=.a9069fbb7642"
         }
       ],
       "keywords" : [
         "waymo",
         "uber"
       ]
     },
     {
       "text" : "Blueprints of Uber’s LIDAR technology was sent to Waymo by accident",
       "sources" : [
         {
           "source" : "bbc",
           "link" : "http://www.bbc.com/news/technology-39536347"
         },
         {
           "source" : "cnn",
           "link" : "http://money.cnn.com/2017/02/23/technology/waymo-uber-google-lawsuit/index.html"
         },
         {
           "source" : "nyt",
           "link" : "https://www.nytimes.com/2017/03/10/technology/waymo-uber-self-driving-car-lawsuit.html"
         },
         {
           "source" : "fox",
           "link" : "http://www.foxnews.com/tech/2017/04/07/google-lawsuit-against-uber-is-misfire-with-no-evidence-uber-lawyer-claims.html"
         },
         {
           "source" : "wpost",
           "link" : "https://www.washingtonpost.com/news/innovations/wp/2017/04/07/uber-strikes-back-against-waymos-lawsuit-over-alleged-stolen-trade-secrets/?utm_term=.a9069fbb7642"
         }
       ],
       "keywords" : [
         "waymo",
         "uber",
         "lidar"
       ]
     },
     {
       "text" : "Waymo filed for an injunction blocking Uber’s self driving car project",
       "sources" : [
         {
           "source" : "bbc",
           "link" : "http://www.bbc.com/news/technology-39536347"
         },
         {
           "source" : "nyt",
           "link" : "https://www.nytimes.com/2017/03/10/technology/waymo-uber-self-driving-car-lawsuit.html"
         },
         {
           "source" : "fox",
           "link" : "http://www.foxnews.com/tech/2017/04/07/google-lawsuit-against-uber-is-misfire-with-no-evidence-uber-lawyer-claims.html"
         },
         {
           "source" : "wpost",
           "link" : "https://www.washingtonpost.com/news/innovations/wp/2017/04/05/judge-tells-uber-to-investigate-accusations-that-employees-stole-secrets-from-waymo/"
         }
       ],
       "keywords" : [
         "waymo",
         "uber"
       ]
     }
   ],
   "unverified" : [
      {
        "text" : "Uber was not responsible for a collision during testing in Arizona",
        "sources" : [
          {
            "source" : "nyt",
            "link" : "https://www.nytimes.com/2017/03/25/business/uber-suspends-tests-of-self-driving-vehicles-after-arizona-crash.html"
          }
        ],
        "keywords" : [
          "waymo",
          "uber"
        ]
      },
      {
        "text" : "Google claims Levandowski and two other employees stole documents",
        "sources" : [
          {
            "source" : "bbc",
            "link" : "http://www.bbc.com/news/technology-39536347"
          }
        ],
        "keywords" : [
          "waymo",
          "uber",
          "google",
          "levandowski"
        ]
      },
      {
        "text" : "If courts side with Waymo, Uber will have difficulty recouperating",
        "sources" : [
          {
            "source" : "fox",
            "link" : "http://www.foxnews.com/tech/2017/04/07/google-lawsuit-against-uber-is-misfire-with-no-evidence-uber-lawyer-claims.html"
          }
        ],
        "keywords" : [
          "waymo",
          "uber"
        ]
      },
      {
        "text" : "Anthony Levandowski said he wanted to 'replicate' Waymo's technology",
        "sources" : [
          {
            "source" : "nyt",
            "link" : "https://www.nytimes.com/2017/03/10/technology/waymo-uber-self-driving-car-lawsuit.html"
          }
        ],
        "keywords" : [
          "waymo",
          "uber",
          "levandowski"
        ]
      }
   ]
 }
